<?xml version="1.0" encoding="UTF-8" standalone="no"?>
<svg
   xmlns:dc="http://purl.org/dc/elements/1.1/"
   xmlns:cc="http://creativecommons.org/ns#"
   xmlns:rdf="http://www.w3.org/1999/02/22-rdf-syntax-ns#"
   xmlns:svg="http://www.w3.org/2000/svg"
   xmlns="http://www.w3.org/2000/svg"
   id="svg8"
   version="1.1"
   viewBox="0 0 50 285"
   height="285mm"
   width="50mm">
  <defs
     id="defs2" />
  <metadata
     id="metadata5">
    <rdf:RDF>
      <cc:Work
         rdf:about="">
        <dc:format>image/svg+xml</dc:format>
        <dc:type
           rdf:resource="http://purl.org/dc/dcmitype/StillImage" />
        <dc:title></dc:title>
      </cc:Work>
    </rdf:RDF>
  </metadata>
  <g
     transform="translate(-62.500059,-11.999937)"
     id="layer1">
    <path
       transform="scale(0.26458333)"
       id="path4668"
       d="m 330.70898,54.802734 a 37.795276,37.795276 0 0 0 -3.77343,0.189454 37.795276,37.795276 0 0 0 -3.73438,0.564453 37.795276,37.795276 0 0 0 -3.66211,0.933593 37.795276,37.795276 0 0 0 -3.54883,1.296875 37.795276,37.795276 0 0 0 -3.40039,1.642579 37.795276,37.795276 0 0 0 -3.2207,1.974609 37.795276,37.795276 0 0 0 -3.00781,2.287109 37.795276,37.795276 0 0 0 -2.76563,2.574219 37.795276,37.795276 0 0 0 -2.49218,2.837891 37.795276,37.795276 0 0 0 -2.19727,3.074218 37.795276,37.795276 0 0 0 -1.88086,3.277344 37.795276,37.795276 0 0 0 -1.54297,3.447266 37.795276,37.795276 0 0 0 -1.1914,3.585937 37.795276,37.795276 0 0 0 -0.82618,3.685547 37.795276,37.795276 0 0 0 -0.45703,3.751953 37.795276,37.795276 0 0 0 -0.0937,2.671875 V 951.89453 a 85.039369,85.039369 0 0 0 -7.41601,4.1543 85.039369,85.039369 0 0 0 -6.96485,4.87305 85.039369,85.039369 0 0 0 -6.44336,5.54492 85.039369,85.039369 0 0 0 -5.85742,6.16015 85.039369,85.039369 0 0 0 -5.21289,6.71289 85.039369,85.039369 0 0 0 -4.51758,7.20118 85.039369,85.039369 0 0 0 -3.77539,7.61523 85.039369,85.039369 0 0 0 -2.99609,7.95505 85.039369,85.039369 0 0 0 -2.1875,8.2149 85.039369,85.039369 0 0 0 -1.35742,8.3906 85.039369,85.039369 0 0 0 -0.51172,8.4863 85.039369,85.039369 0 0 0 -0.004,0.8281 85.039369,85.039369 0 0 0 0.42578,8.4903 85.039369,85.039369 0 0 0 1.26953,8.4043 85.039369,85.039369 0 0 0 2.10352,8.2363 85.039369,85.039369 0 0 0 2.91406,7.9844 85.039369,85.039369 0 0 0 3.69727,7.6543 85.039369,85.039369 0 0 0 4.44336,7.248 85.039369,85.039369 0 0 0 5.14453,6.7657 85.039369,85.039369 0 0 0 5.79492,6.2207 85.039369,85.039369 0 0 0 6.38477,5.6093 85.039369,85.039369 0 0 0 6.91406,4.9453 85.039369,85.039369 0 0 0 7.375,4.2286 85.039369,85.039369 0 0 0 7.75781,3.4726 85.039369,85.039369 0 0 0 8.06641,2.6797 85.039369,85.039369 0 0 0 8.29492,1.8613 85.039369,85.039369 0 0 0 8.4375,1.0254 85.039369,85.039369 0 0 0 6.01562,0.2129 85.039369,85.039369 0 0 0 8.49024,-0.4258 85.039369,85.039369 0 0 0 8.4043,-1.2695 85.039369,85.039369 0 0 0 8.23632,-2.1035 85.039369,85.039369 0 0 0 7.98438,-2.9141 85.039369,85.039369 0 0 0 7.6543,-3.6972 85.039369,85.039369 0 0 0 7.24804,-4.4434 85.039369,85.039369 0 0 0 6.76563,-5.1445 85.039369,85.039369 0 0 0 6.2207,-5.795 85.039369,85.039369 0 0 0 5.60938,-6.3847 85.039369,85.039369 0 0 0 4.94531,-6.9141 85.039369,85.039369 0 0 0 4.22851,-7.375 85.039369,85.039369 0 0 0 3.47266,-7.7578 85.039369,85.039369 0 0 0 2.67969,-8.0664 85.039369,85.039369 0 0 0 1.86328,-8.2949 85.039369,85.039369 0 0 0 1.02344,-8.4375 85.039369,85.039369 0 0 0 0.21289,-6.0157 85.039369,85.039369 0 0 0 -0.43555,-8.4902 85.039369,85.039369 0 0 0 -1.28125,-8.4023 85.039369,85.039369 0 0 0 -2.11523,-8.2325 85.039369,85.039369 0 0 0 -2.92383,-7.98237 85.039369,85.039369 0 0 0 -3.70899,-7.64844 85.039369,85.039369 0 0 0 -4.45117,-7.24219 85.039369,85.039369 0 0 0 -5.1543,-6.75976 85.039369,85.039369 0 0 0 -5.80273,-6.21094 85.039369,85.039369 0 0 0 -6.39258,-5.60156 85.039369,85.039369 0 0 0 -6.92187,-4.93555 85.039369,85.039369 0 0 0 -7.37891,-4.2207 85.039369,85.039369 0 0 0 -0.67773,-0.33985 V 92.597656 a 37.795276,37.795276 0 0 0 -0.18946,-3.773437 37.795276,37.795276 0 0 0 -0.56445,-3.734375 37.795276,37.795276 0 0 0 -0.93359,-3.66211 37.795276,37.795276 0 0 0 -1.29688,-3.548828 37.795276,37.795276 0 0 0 -1.64258,-3.40039 37.795276,37.795276 0 0 0 -1.97461,-3.220704 37.795276,37.795276 0 0 0 -2.28711,-3.007812 37.795276,37.795276 0 0 0 -2.57421,-2.765625 37.795276,37.795276 0 0 0 -2.8379,-2.492187 37.795276,37.795276 0 0 0 -3.07421,-2.197266 37.795276,37.795276 0 0 0 -3.27735,-1.88086 37.795276,37.795276 0 0 0 -3.44726,-1.542968 37.795276,37.795276 0 0 0 -3.58594,-1.191406 37.795276,37.795276 0 0 0 -3.68555,-0.826172 37.795276,37.795276 0 0 0 -3.75195,-0.457032 37.795276,37.795276 0 0 0 -2.67188,-0.09375 z"
       style="fill:none;stroke-width:0.65641081" />
    <path
       transform="scale(0.26458333)"
       id="path3699-7-5"
       d="M 330.70898,64.251953 A 28.346457,28.346457 0 0 0 302.36133,92.597656 V 958.00586 a 75.590551,75.590551 0 0 0 -47.24414,70.02534 75.590551,75.590551 0 0 0 75.59179,75.5899 75.590551,75.590551 0 0 0 75.58985,-75.5899 75.590551,75.590551 0 0 0 -47.24414,-70.02143 V 92.597656 A 28.346457,28.346457 0 0 0 330.70898,64.251953 Z"
       style="fill:#a7adba;stroke-width:0.5251286;fill-opacity:1" />
  </g>
</svg>
